{"data":{"posts":{"totalCount":17,"pageInfo":{"totalPages":2,"currentPage":1},"edges":[{"node":{"id":"7217d262d8449ce8d96e860273c16ee4","title":"Trump = laser pointer, democrats = cat ğŸ±","path":"/memes/laser","cover":"/images/laser.jpg","tags":[{"id":"trump","title":"trump","path":"/tag/trump"},{"id":"democrats","title":"democrats","path":"/tag/democrats"}]}},{"node":{"id":"1f7634402d737e25f0920187ed8fab2b","title":"Come to daddy ğŸ‰","path":"/memes/come-to-daddy","cover":"/images/daddy.jpg","tags":[{"id":"trump","title":"trump","path":"/tag/trump"},{"id":"democrats","title":"democrats","path":"/tag/democrats"},{"id":"aoc","title":"aoc","path":"/tag/aoc"}]}},{"node":{"id":"edbde23ab32aacf564a3f5ba38507b10","title":"I'll have the Kung Pao Chicken ğŸŒ­ğŸ§ƒ","path":"/memes/kungpao","cover":"/images/kungpao.jpg","tags":[{"id":"trump","title":"trump","path":"/tag/trump"},{"id":"obama","title":"obama","path":"/tag/obama"},{"id":"spygate","title":"spygate","path":"/tag/spygate"}]}},{"node":{"id":"d238a9699e247d84be82b6d4a0b606c0","title":"Just grabbing some coffee in a socialist utopia â˜•ğŸ’°","path":"/memes/coffee-in-a-socialist-utopia","cover":"/images/utopian-coffee.jpg","tags":[{"id":"democrats","title":"democrats","path":"/tag/democrats"},{"id":"socialism","title":"socialism","path":"/tag/socialism"}]}},{"node":{"id":"02dbb3083199ba488029d70b4a0e98f5","title":"Muh free stuff âœŠğŸ”","path":"/memes/free-stuff","cover":"/images/muh-free-stuff.jpg","tags":[{"id":"socialism","title":"socialism","path":"/tag/socialism"}]}},{"node":{"id":"760e8924e0bd2e19a58c354672ed808f","title":"Lifted up from poverty, Bernie style ğŸ˜ï¸","path":"/memes/lifted-up-from-poverty","cover":"/images/lifted-up-from-poverty.jpg","tags":[{"id":"bernie","title":"bernie","path":"/tag/bernie"},{"id":"democrats","title":"democrats","path":"/tag/democrats"},{"id":"socialism","title":"socialism","path":"/tag/socialism"}]}},{"node":{"id":"2f52a108eb3e243aabe7329e47e6bbac","title":"Real collusion ğŸ”¥","path":"/memes/real-collusion","cover":"/images/woods.jpg","tags":[{"id":"truth","title":"truth","path":"/tag/truth"}]}},{"node":{"id":"a38cedd8abe6050e61f00d6e91920830","title":"Muh gender stereotypes ğŸ¤¦ğŸ‘¯","path":"/memes/gender-stereotypes","cover":"/images/gender-stereotypes.jpg","tags":[{"id":"leftists","title":"leftists","path":"/tag/leftists"},{"id":"truth","title":"truth","path":"/tag/truth"}]}},{"node":{"id":"51f85f88ce9a4b579346c3cb327ddbb6","title":"A$AP Linda speaks the truth ğŸ’²ğŸ’¥","path":"/memes/grab-em","cover":"/images/grabem.jpg","tags":[{"id":"truth","title":"truth","path":"/tag/truth"},{"id":"tweet","title":"tweet","path":"/tag/tweet"}]}},{"node":{"id":"99fb2a97195bcf4a90b3836e5d99b2ac","title":"Trumps new astronauts ğŸ‘©â€ğŸš€","path":"/memes/astronauts","cover":"/images/astronauts.jpg","tags":[{"id":"trump","title":"trump","path":"/tag/trump"},{"id":"democrats","title":"democrats","path":"/tag/democrats"}]}},{"node":{"id":"1dba0fd858b8f322f1952060ec66cc05","title":"House of tards ğŸ˜","path":"/memes/house-of-tards","cover":"/images/house-of-tards.jpg","tags":[{"id":"democrats","title":"democrats","path":"/tag/democrats"},{"id":"unhinged","title":"unhinged","path":"/tag/unhinged"}]}},{"node":{"id":"81d83306912e04d773e7e18eab9b76b2","title":"Only in America ğŸ¦…","path":"/memes/only-in-america","cover":"/images/only-in-america.jpg","tags":[{"id":"trump","title":"trump","path":"/tag/trump"},{"id":"truth","title":"truth","path":"/tag/truth"}]}},{"node":{"id":"605d2ca83d3a43edfd1914354236cb93","title":"McMueller's nothing burgers ğŸ”","path":"/memes/mcmueller","cover":"/images/nothing-burger.jpg","tags":[{"id":"democrats","title":"democrats","path":"/tag/democrats"},{"id":"mueller","title":"mueller","path":"/tag/mueller"}]}},{"node":{"id":"fd1e205d85169f29435a9d5968877432","title":"Good Morning! What are we offended by today? ğŸ°","path":"/memes/good-morning","cover":"/images/archiebunker.jpg","tags":[{"id":"unhinged","title":"unhinged","path":"/tag/unhinged"}]}},{"node":{"id":"e4e4b2a410cfdf034e38b8397a39a00f","title":"The jihad squad ğŸ‘¾","path":"/memes/jihad-squad","cover":"/images/jihad-squad.jpg","tags":[{"id":"democrats","title":"democrats","path":"/tag/democrats"},{"id":"unhinged","title":"unhinged","path":"/tag/unhinged"}]}}]}},"context":{}}