{"data":{"posts":{"totalCount":19,"pageInfo":{"totalPages":2,"currentPage":2},"edges":[{"node":{"id":"605d2ca83d3a43edfd1914354236cb93","title":"McMueller's nothing burgers ğŸ”","path":"/memes/mcmueller","cover":"/images/nothing-burger.jpg","tags":[{"id":"democrats","title":"democrats","path":"/tag/democrats"},{"id":"mueller","title":"mueller","path":"/tag/mueller"}]}},{"node":{"id":"e4e4b2a410cfdf034e38b8397a39a00f","title":"The jihad squad ğŸ‘¾","path":"/memes/jihad-squad","cover":"/images/jihad-squad.jpg","tags":[{"id":"democrats","title":"democrats","path":"/tag/democrats"},{"id":"unhinged","title":"unhinged","path":"/tag/unhinged"}]}},{"node":{"id":"f003314d264b31150b35c7fd37adf01e","title":"Freedom vs tyranny ğŸ’¯","path":"/memes/freedom-vs-tyranny","cover":"/images/tyranny.jpg","tags":[{"id":"trump","title":"trump","path":"/tag/trump"},{"id":"maga","title":"maga","path":"/tag/maga"}]}},{"node":{"id":"b7d4acef45bf1517e457f34c5c75fb2f","title":"Because this isn't working ğŸ—³ï¸","path":"/memes/because-this-isnt-working","cover":"/images/lion.jpg","tags":[{"id":"trump","title":"trump","path":"/tag/trump"}]}}]}},"context":{}}